DAWeek3
…
evals.scores %>%
  slice(56) %>%
  summarize(score - (3.88034+0.06664*bty_avg))

## # A tibble: 1 x 1
##   `score - (3.88034 + 0.06664 * bty_avg)`
##                                     <dbl>
## 1                                   0.353

To obtain the fitted values and residuals for all instructors within the data set we can use the get_regression_points function:

regression.points <- get_regression_points(model)
regression.points

## # A tibble: 463 x 5
##       ID score bty_avg score_hat residual
##    <int> <dbl>   <dbl>     <dbl>    <dbl>
##  1     1   4.7    5         4.21    0.486
##  2     2   4.1    5         4.21   -0.114
##  3     3   3.9    5         4.21   -0.314
##  4     4   4.8    5         4.21    0.586
##  5     5   4.6    3         4.08    0.52 
##  6     6   4.3    3         4.08    0.22 
##  7     7   2.8    3         4.08   -1.28 
##  8     8   4.1    3.33      4.10   -0.002
##  9     9   3.4    3.33      4.10   -0.702
## 10    10   4.5    3.17      4.09    0.409
## #  with 453 more rows
…
Here, we can see that the middle 50% of the life expectancy distribution of Africa is much smaller than, and does not overlap with, the middle 50% of the remaining four continents, while the country with the highest life expectancy in Africa is less than all countries in Oceania. Speaking of Oceania, there is almost no variability (or spread) in life expectancy in this continent, however that may well be because it consists of only two countries (Australia and New Zealand). There is more variability in life expectancy in the continents of Africa and Asia.

lifeExp.Asia.min <- gapminder2007 %>%
  filter(continent == "Asia") %>% 
  group_by(country) %>%
  summarize(median = median(lifeExp), mean = mean(lifeExp))
lifeExp.Asia.min

## # A tibble: 33 x 3
##    country          median  mean
##    <fct>             <dbl> <dbl>
##  1 Afghanistan        43.8  43.8
##  2 Bahrain            75.6  75.6
##  3 Bangladesh         64.1  64.1
##  4 Cambodia           59.7  59.7
##  5 China              73.0  73.0
##  6 Hong Kong, China   82.2  82.2
##  7 India              64.7  64.7
##  8 Indonesia          70.6  70.6
##  9 Iran               71.0  71.0
## 10 Iraq               59.5  59.5
## #  with 23 more rows
…
